\relax 
\providecommand*\new@tpo@label[2]{}
\@writefile{toc}{\contentsline {section}{\numberline {1}INTRODUCTION}{1}}
\citation{L1}
\@writefile{toc}{\contentsline {section}{\numberline {2}SOURCE CODE}{3}}
\@writefile{toc}{\contentsline {subsection}{\numberline {2.1}Program}{3}}
\@writefile{toc}{\contentsline {subsection}{\numberline {2.2}\texttt  {KdTreeTester.java}}{3}}
\@writefile{lol}{\contentsline {lstlisting}{./CodeSnippet/KdTreeTester.java}{3}}
\@writefile{toc}{\contentsline {subsection}{\numberline {2.3}\texttt  {KdTree.java}}{4}}
\@writefile{lol}{\contentsline {lstlisting}{./CodeSnippet/KdTree.java}{5}}
\@writefile{toc}{\contentsline {subsection}{\numberline {2.4}\texttt  {point.java}}{8}}
\@writefile{lol}{\contentsline {lstlisting}{./CodeSnippet/point.java}{8}}
\@writefile{toc}{\contentsline {subsection}{\numberline {2.5}\texttt  {RectInfo.java}}{9}}
\@writefile{lol}{\contentsline {lstlisting}{./CodeSnippet/RectInfo.java}{9}}
\@writefile{toc}{\contentsline {section}{\numberline {3}RESULT}{10}}
\@writefile{toc}{\contentsline {subsection}{\numberline {3.1}General 2d-tree output}{10}}
\@writefile{lof}{\contentsline {figure}{\numberline {1}{\ignorespaces Screenshot of execution output of \texttt  {KdTreeTester} with generalized kd-tree algorithm. Left side shows results of \texttt  {contains(point p)} method calls; Right side shows result of GUI plot using Swing.}}{10}}
\newlabel{f:swing}{{1}{10}}
\@writefile{toc}{\contentsline {subsection}{\numberline {3.2}Modified 2d-tree output}{10}}
\@writefile{lof}{\contentsline {figure}{\numberline {2}{\ignorespaces Sample plot of 2d-tree provided in the Project statement (a); Screenshot of execution output of \texttt  {KdTreeTester} with modified kd-tree algorithm (b)}}{11}}
\newlabel{f:swing2}{{2}{11}}
\@writefile{lol}{\contentsline {lstlisting}{./CodeSnippet/KdTree2.java}{11}}
\bibcite{L1}{1}
\@writefile{toc}{\contentsline {section}{\numberline {4}CONCLUSION}{12}}
